…
7. As measured by the data, which snake species has the smallest homerange? Show all of your work, please. Look this species up online and tell me about it!  

```r
homerange %>% 
  filter(taxon=="snakes") %>% 
  select(genus, species, mean.hra.m2) %>% 
  arrange(mean.hra.m2)
```

```
## # A tibble: 41 x 3
##    genus       species      mean.hra.m2
##    <chr>       <chr>              <dbl>
##  1 bitis       schneideri          200 
##  2 carphopis   viridis             253 
##  3 thamnophis  butleri             600 
##  4 carphopis   vermis              700 
##  5 vipera      latastei           2400 
##  6 gloydius    shedaoensis        2614.
##  7 diadophis   punctatus          6476 
##  8 agkistrodon piscivorous       10655 
##  9 oocatochus  rufodorsatus      15400 
## 10 pituophis   catenifer         17400 
## # … with 31 more rows
```
#Bitis schneideri or the Namaqua Dwarf Adder is a small species of viper (possibly the world's smallest viper). It has evolved a higher rate of reproduction than members of the family Viperidae. Scientists believe this is due to its high rate of depredation within the small coastal region between Namibia and South Africa

8. You suspect that homerange and mass are correlated in birds. We need a ratio that facilitates exploration of this prediction. First, build a new dataframe called `hra_ratio` that is limited to genus, species, mean.mass.g, log10.mass, log10.hra. Arrange it in ascending order by mean mass in grams.  

```r
hra_ratio <- filter(homerange, taxon=="birds")
hra_ratio %>% 
  select(genus, species, mean.mass.g, log10.mass, log10.hra) %>% 
  arrange(mean.mass.g)
```

```
## # A tibble: 140 x 5
##    genus        species      mean.mass.g log10.mass log10.hra
##    <chr>        <chr>              <dbl>      <dbl>     <dbl>
##  1 regulus      regulus             5.15      0.712      4.30
##  2 regulus      ignicapillus        5.3       0.724      4.22
##  3 phylloscopus bonelli             7.5       0.875      4.54
##  4 aegithalos   caudatus            8         0.903      4.62
##  5 vireo        atricapillus        8.5       0.929      4.18
##  6 setophaga    magnolia            8.6       0.934      3.86
##  7 certhia      familiaris          8.77      0.943      4.67
##  8 sylvia       undata              8.8       0.944      3.45
##  9 setophaga    ruticilla           9         0.954      3.29
## 10 setophaga    virens              9         0.954      3.81
## # … with 130 more rows
```
…
