…
4. Think about the classes. Will any present problems? Make any changes you think are necessary below.

```r
fisheries$Country <- as.factor(fisheries$Country)
fisheries
```

```
## # A tibble: 17,692 x 71
##    Country `Common name` `ISSCAAP group#` `ISSCAAP taxono… `ASFIS species#`
##    <fct>   <chr>                    <dbl> <chr>            <chr>           
##  1 Albania Angelsharks,…               38 Sharks, rays, c… 10903XXXXX      
##  2 Albania Atlantic bon…               36 Tunas, bonitos,… 1750100101      
##  3 Albania Barracudas n…               37 Miscellaneous p… 17710001XX      
##  4 Albania Blue and red…               45 Shrimps, prawns  2280203101      
##  5 Albania Blue whiting…               32 Cods, hakes, ha… 1480403301      
##  6 Albania Bluefish                    37 Miscellaneous p… 1702021301      
##  7 Albania Bogue                       33 Miscellaneous c… 1703926101      
##  8 Albania Caramote pra…               45 Shrimps, prawns  2280100117      
##  9 Albania Catsharks, n…               38 Sharks, rays, c… 10801003XX      
## 10 Albania Common cuttl…               57 Squids, cuttlef… 3210200202      
## # … with 17,682 more rows, and 66 more variables: `ASFIS species name` <chr>,
## #   `FAO major fishing area` <dbl>, Measure <chr>, `1950` <chr>, `1951` <chr>,
## #   `1952` <chr>, `1953` <chr>, `1954` <chr>, `1955` <chr>, `1956` <chr>,
## #   `1957` <chr>, `1958` <chr>, `1959` <chr>, `1960` <chr>, `1961` <chr>,
## #   `1962` <chr>, `1963` <chr>, `1964` <chr>, `1965` <chr>, `1966` <chr>,
## #   `1967` <chr>, `1968` <chr>, `1969` <chr>, `1970` <chr>, `1971` <chr>,
## #   `1972` <chr>, `1973` <chr>, `1974` <chr>, `1975` <chr>, `1976` <chr>,
## #   `1977` <chr>, `1978` <chr>, `1979` <chr>, `1980` <chr>, `1981` <chr>,
## #   `1982` <chr>, `1983` <chr>, `1984` <chr>, `1985` <chr>, `1986` <chr>,
…
```r
fisheries <- rename(fisheries,
    country = Country,
    commname = `Common name`,
    ASFIS_sciname = `ASFIS species name`,
    ASFIS_spcode = `ASFIS species#`,
    ISSCAAP_spgroup = `ISSCAAP group#`,
    ISSCAAP_spgroupname = `ISSCAAP taxonomic group`,
    FAO_area = `FAO major fishing area`,
    unit = Measure)
fisheries
```

```
## # A tibble: 17,692 x 71
##    country commname ISSCAAP_spgroup ISSCAAP_spgroup… ASFIS_spcode ASFIS_sciname
##    <fct>   <chr>              <dbl> <chr>            <chr>        <chr>        
##  1 Albania Angelsh…              38 Sharks, rays, c… 10903XXXXX   Squatinidae  
##  2 Albania Atlanti…              36 Tunas, bonitos,… 1750100101   Sarda sarda  
##  3 Albania Barracu…              37 Miscellaneous p… 17710001XX   Sphyraena spp
##  4 Albania Blue an…              45 Shrimps, prawns  2280203101   Aristeus ant…
##  5 Albania Blue wh…              32 Cods, hakes, ha… 1480403301   Micromesisti…
##  6 Albania Bluefish              37 Miscellaneous p… 1702021301   Pomatomus sa…
##  7 Albania Bogue                 33 Miscellaneous c… 1703926101   Boops boops  
##  8 Albania Caramot…              45 Shrimps, prawns  2280100117   Penaeus kera…
##  9 Albania Catshar…              38 Sharks, rays, c… 10801003XX   Scyliorhinus…
## 10 Albania Common …              57 Squids, cuttlef… 3210200202   Sepia offici…
## # … with 17,682 more rows, and 65 more variables: FAO_area <dbl>, unit <chr>,
## #   `1950` <chr>, `1951` <chr>, `1952` <chr>, `1953` <chr>, `1954` <chr>,
## #   `1955` <chr>, `1956` <chr>, `1957` <chr>, `1958` <chr>, `1959` <chr>,
## #   `1960` <chr>, `1961` <chr>, `1962` <chr>, `1963` <chr>, `1964` <chr>,
## #   `1965` <chr>, `1966` <chr>, `1967` <chr>, `1968` <chr>, `1969` <chr>,
## #   `1970` <chr>, `1971` <chr>, `1972` <chr>, `1973` <chr>, `1974` <chr>,
## #   `1975` <chr>, `1976` <chr>, `1977` <chr>, `1978` <chr>, `1979` <chr>,
## #   `1980` <chr>, `1981` <chr>, `1982` <chr>, `1983` <chr>, `1984` <chr>,
## #   `1985` <chr>, `1986` <chr>, `1987` <chr>, `1988` <chr>, `1989` <chr>,
…
8. Are these data tidy? Why or why not, and, how do you know? Use the appropriate pivot function to tidy the data. Remove the NA's. Put the tidy data frame into a new object `fisheries_tidy`.  
#No they are not tidy because the year data are column names.

```r
fisheries_tidy <- 
  fisheries %>% 
  pivot_longer("1950":"2012",
               names_to = "year",
               values_to = "tonnes",
               values_drop_na = TRUE)
fisheries_tidy
```

```
## # A tibble: 376,771 x 10
##    country commname ISSCAAP_spgroup ISSCAAP_spgroup… ASFIS_spcode ASFIS_sciname
##    <fct>   <chr>              <dbl> <chr>            <chr>        <chr>        
##  1 Albania Angelsh…              38 Sharks, rays, c… 10903XXXXX   Squatinidae  
##  2 Albania Angelsh…              38 Sharks, rays, c… 10903XXXXX   Squatinidae  
##  3 Albania Angelsh…              38 Sharks, rays, c… 10903XXXXX   Squatinidae  
##  4 Albania Angelsh…              38 Sharks, rays, c… 10903XXXXX   Squatinidae  
##  5 Albania Angelsh…              38 Sharks, rays, c… 10903XXXXX   Squatinidae  
##  6 Albania Angelsh…              38 Sharks, rays, c… 10903XXXXX   Squatinidae  
##  7 Albania Angelsh…              38 Sharks, rays, c… 10903XXXXX   Squatinidae  
##  8 Albania Angelsh…              38 Sharks, rays, c… 10903XXXXX   Squatinidae  
##  9 Albania Angelsh…              38 Sharks, rays, c… 10903XXXXX   Squatinidae  
## 10 Albania Angelsh…              38 Sharks, rays, c… 10903XXXXX   Squatinidae  
## # … with 376,761 more rows, and 4 more variables: FAO_area <dbl>, unit <chr>,
## #   year <chr>, tonnes <chr>
```


9. Refocus the data only to include country, ISSCAAP_spgroupname, ASFIS_spcode, ASFIS_sciname, year, and catch.

```r
fisheries_tidy2 <- 
  fisheries_tidy %>% 
  select(country, ISSCAAP_spgroupname, ASFIS_spcode, ASFIS_sciname, year, tonnes)
fisheries_tidy2
```

```
## # A tibble: 376,771 x 6
##    country ISSCAAP_spgroupname     ASFIS_spcode ASFIS_sciname year  tonnes
##    <fct>   <chr>                   <chr>        <chr>         <chr> <chr> 
##  1 Albania Sharks, rays, chimaeras 10903XXXXX   Squatinidae   1995  0 0   
##  2 Albania Sharks, rays, chimaeras 10903XXXXX   Squatinidae   1996  53    
##  3 Albania Sharks, rays, chimaeras 10903XXXXX   Squatinidae   1997  20    
##  4 Albania Sharks, rays, chimaeras 10903XXXXX   Squatinidae   1998  31    
##  5 Albania Sharks, rays, chimaeras 10903XXXXX   Squatinidae   1999  30    
##  6 Albania Sharks, rays, chimaeras 10903XXXXX   Squatinidae   2000  30    
##  7 Albania Sharks, rays, chimaeras 10903XXXXX   Squatinidae   2001  16    
##  8 Albania Sharks, rays, chimaeras 10903XXXXX   Squatinidae   2002  79    
##  9 Albania Sharks, rays, chimaeras 10903XXXXX   Squatinidae   2003  1     
## 10 Albania Sharks, rays, chimaeras 10903XXXXX   Squatinidae   2004  4     
## # … with 376,761 more rows
```
…
```r
fisheries_tidy2$tonnes <- as.numeric(fisheries_tidy2$tonnes, drop_na=TRUE)
```

```
## Warning: NAs introduced by coercion
```

```r
fisheries_tidy2
```

```
## # A tibble: 376,771 x 6
##    country ISSCAAP_spgroupname     ASFIS_spcode ASFIS_sciname year  tonnes
##    <fct>   <chr>                   <chr>        <chr>         <chr>  <dbl>
##  1 Albania Sharks, rays, chimaeras 10903XXXXX   Squatinidae   1995      NA
##  2 Albania Sharks, rays, chimaeras 10903XXXXX   Squatinidae   1996      53
##  3 Albania Sharks, rays, chimaeras 10903XXXXX   Squatinidae   1997      20
##  4 Albania Sharks, rays, chimaeras 10903XXXXX   Squatinidae   1998      31
##  5 Albania Sharks, rays, chimaeras 10903XXXXX   Squatinidae   1999      30
##  6 Albania Sharks, rays, chimaeras 10903XXXXX   Squatinidae   2000      30
##  7 Albania Sharks, rays, chimaeras 10903XXXXX   Squatinidae   2001      16
##  8 Albania Sharks, rays, chimaeras 10903XXXXX   Squatinidae   2002      79
##  9 Albania Sharks, rays, chimaeras 10903XXXXX   Squatinidae   2003       1
## 10 Albania Sharks, rays, chimaeras 10903XXXXX   Squatinidae   2004       4
## # … with 376,761 more rows
```
…
12. Which country had the largest overall catch in the year 2000?

```r
largest_catch_2000 <- 
  fisheries_tidy2 %>% 
  group_by(country) %>% 
  filter(year=="2000") %>% 
  summarize(total_tonnes = sum(tonnes, na.rm = TRUE)) %>% 
  arrange(desc(total_tonnes))
largest_catch_2000
```

```
## # A tibble: 193 x 2
##    country                  total_tonnes
##    <fct>                           <dbl>
##  1 Peru                         10625010
##  2 Japan                         4921013
##  3 United States of America      4692229
##  4 Chile                         4297928
##  5 Indonesia                     3761769
##  6 Russian Federation            3678828
##  7 Thailand                      2795719
##  8 India                         2760632
##  9 Norway                        2698506
## 10 Iceland                       1982369
## # … with 183 more rows
```
…
```r
most_sardines <- 
  fisheries_tidy2 %>% 
  select(country, tonnes, year, ASFIS_sciname) %>% 
  filter(str_detect(ASFIS_sciname, "Sardina")) %>% 
  filter(year==1999 & 2000) %>% 
  group_by(country) %>% 
  summarize(total_sardines = sum(tonnes, na.rm=TRUE)) %>% 
  arrange(desc(total_sardines))
most_sardines
```

```
## # A tibble: 27 x 2
##    country  total_sardines
##    <fct>             <dbl>
##  1 Morocco          430715
##  2 Spain            128231
##  3 Portugal          71972
##  4 Algeria           56724
##  5 Ukraine           50754
##  6 France            38861
##  7 Italy             28876
##  8 Turkey            22000
##  9 Denmark           17676
## 10 Greece            15214
## # … with 17 more rows
```
…
```
## Warning in is.na(e1) | is.na(e2): longer object length is not a multiple of
## shorter object length
```

```r
highest_catch
```

```
## # A tibble: 323 x 2
##    ASFIS_sciname               total_catch
##    <chr>                             <dbl>
##  1 Osteichthyes                   17212869
##  2 Trichiurus lepturus             6088151
##  3 Mollusca                        3710269
##  4 Crustacea                       3067108
##  5 Acetes japonicus                2216952
##  6 Scomber japonicus               1957482
##  7 Engraulis japonicus             1551065
##  8 Decapterus spp                  1319743
##  9 Scomberomorus spp               1086914
## 10 Cantherhines (=Navodon) spp      991182
## # … with 313 more rows
```
…
